…
```r
meanSteps
```

```
## # A tibble: 53 x 4
##    date       Total.Steps Mean.Steps Median.Steps
##    <fct>            <dbl>      <dbl>        <dbl>
##  1 2012-10-02         126      0.438            0
##  2 2012-10-03       11352     39.4              0
##  3 2012-10-04       12116     42.1              0
##  4 2012-10-05       13294     46.2              0
##  5 2012-10-06       15420     53.5              0
##  6 2012-10-07       11015     38.2              0
##  7 2012-10-09       12811     44.5              0
##  8 2012-10-10        9900     34.4              0
##  9 2012-10-11       10304     35.8              0
## 10 2012-10-12       17382     60.4              0
## # … with 43 more rows
```
…
```r
meanSteps
```

```
## # A tibble: 61 x 4
##    date       Total.Steps Mean.Steps Median.Steps
##    <fct>            <dbl>      <dbl>        <dbl>
##  1 2012-10-01      10766.     37.4           34.1
##  2 2012-10-02        126       0.438          0  
##  3 2012-10-03      11352      39.4            0  
##  4 2012-10-04      12116      42.1            0  
##  5 2012-10-05      13294      46.2            0  
##  6 2012-10-06      15420      53.5            0  
##  7 2012-10-07      11015      38.2            0  
##  8 2012-10-08      10766.     37.4           34.1
##  9 2012-10-09      12811      44.5            0  
## 10 2012-10-10       9900      34.4            0  
## # … with 51 more rows
```
…
